<svg width="40" height="40" viewBox="0 0 40 40" fill="none" xmlns="http://www.w3.org/2000/svg">
<circle cx="20" cy="20" r="20" fill="#3B5998"/>
<path d="M17.5528 30V20.6154H15V17.2365H17.5528V14.3505C17.5528 12.0826 19.0607 10 22.5353 10C23.9421 10 24.9824 10.1311 24.9824 10.1311L24.9004 13.2864C24.9004 13.2864 23.8395 13.2764 22.6818 13.2764C21.4288 13.2764 21.228 13.8377 21.228 14.7693V17.2365H25L24.8359 20.6154H21.228V30H17.5528Z" fill="white"/>
</svg>
